{
    "status":200,
    "message":"Success",
    "success":true,
    "data":[
        {
            "id":1,
            "user":{
                "user_id":1,
                "photo_url":"https://i1.wp.com/refactory.id/wp-content/uploads/2020/08/Firhat.jpg?w=1000&ssl=1",
                "name":"MUHAMMAD FIRHAT",
                "from":"Student"
            },
            "star":4,
            "title":"Recomended Bootcamp",
            "description":"Refactory adalah game changer untuk belajar pemrograman. Kalau Anda yakin pada karir pemrograman, Refactory harus menjadi tempat pertama yang Anda tuju. Anda akan dilatih oleh Mentor yang Ahli di bidangnya. Refactory tidak hanya memberikan kurikulum terbaru, tetapi juga akan meberikan pengalaman studi kasus dan lingkungan pemrograman secara real menyesuaikan dunia bisnis saat ini. Refactory memang luar biasa!"
        },
        {
            "id":2,
            "user":{
                "user_id":2,
                "photo_url":"https://i0.wp.com/refactory.id/wp-content/uploads/2020/08/Erdi.jpg?w=1000&ssl=1",
                "name":"ERDIANSYAH",
                "from":"Head of Developer in MNC"
            },
            "star":5,
            "title":"Recomended Bootcamp",
            "description":"Di Refactory saya mendapatkan lebih banyak dari standar saya. Saya tidak pernah membayangkan hanya dalam tiga bulan saya memiliki akun GitHub dengan kontribuasi lebih dari 500 poin dari yang sebelumnya tidak aktif. Saya terlibat dalam 4 real project besar dari client internasional. Saya juga dapat memberikan beberapa kontribusi untuk proyek open source, dan itu menyenangkan."
        
        }
    ]
}


    
  
   
    
    
    
    
    
    
    
    